<svg width="48" height="49" viewBox="0 0 48 49" fill="none" xmlns="http://www.w3.org/2000/svg">
<rect y="0.393555" width="48" height="48" rx="24" fill="url(#paint0_linear_33_5415)"/>
<g filter="url(#filter0_d_33_5415)">
<path d="M24 33.7269L14.88 24.3403C12.8133 22.2203 12.8133 18.7803 14.88 16.6469C16.9467 14.5269 20.2933 14.5269 22.36 16.6603L24 18.3536L25.64 16.6603C27.7067 14.5403 31.0533 14.5403 33.12 16.6603C35.1867 18.7803 35.1867 22.2336 33.12 24.3536L24 33.7403V33.7269Z" fill="white"/>
</g>
<defs>
<filter id="filter0_d_33_5415" x="9.32999" y="11.0586" width="29.34" height="26.6816" filterUnits="userSpaceOnUse" color-interpolation-filters="sRGB">
<feFlood flood-opacity="0" result="BackgroundImageFix"/>
<feColorMatrix in="SourceAlpha" type="matrix" values="0 0 0 0 0 0 0 0 0 0 0 0 0 0 0 0 0 0 127 0" result="hardAlpha"/>
<feOffset/>
<feGaussianBlur stdDeviation="2"/>
<feComposite in2="hardAlpha" operator="out"/>
<feColorMatrix type="matrix" values="0 0 0 0 1 0 0 0 0 1 0 0 0 0 1 0 0 0 0.75 0"/>
<feBlend mode="normal" in2="BackgroundImageFix" result="effect1_dropShadow_33_5415"/>
<feBlend mode="normal" in="SourceGraphic" in2="effect1_dropShadow_33_5415" result="shape"/>
</filter>
<linearGradient id="paint0_linear_33_5415" x1="0" y1="0.393555" x2="39" y2="48.3936" gradientUnits="userSpaceOnUse">
<stop stop-color="#B99E76"/>
<stop offset="1" stop-color="#EFE5CC"/>
</linearGradient>
</defs>
</svg>
