<svg width="24" height="52" viewBox="0 0 24 52" fill="none" xmlns="http://www.w3.org/2000/svg">
<g clip-path="url(#clip0_2_685)">
<path d="M24 1.6843V0.0903254L23.9097 0L0 23.3783L2.65663 26.035L0 28.6916L23.9097 51.5386L24 51.4536V49.8596L23.9097 49.9447L1.59398 28.6916L3.18796 27.0976L23.9097 47.288L24 47.1977V45.6037L23.9097 45.694L3.71928 26.035L23.9097 5.84459L24 5.93491V4.34093L23.9097 4.25061L3.18796 24.9723L1.59398 23.3783L23.9097 1.59398L24 1.6843Z" fill="#C1B49A"/>
</g>
<defs>
<clipPath id="clip0_2_685">
<rect width="24" height="51.5386" fill="white"/>
</clipPath>
</defs>
</svg>
